<?xml version="1.0" encoding="UTF-8" standalone="no"?>
<svg
   xmlns:sketch="http://www.bohemiancoding.com/sketch/ns"
   xmlns:dc="http://purl.org/dc/elements/1.1/"
   xmlns:cc="http://creativecommons.org/ns#"
   xmlns:rdf="http://www.w3.org/1999/02/22-rdf-syntax-ns#"
   xmlns:svg="http://www.w3.org/2000/svg"
   xmlns="http://www.w3.org/2000/svg"
   xmlns:sodipodi="http://sodipodi.sourceforge.net/DTD/sodipodi-0.dtd"
   xmlns:inkscape="http://www.inkscape.org/namespaces/inkscape"
   viewBox="0 0 32 32"
   version="1.1"
   x="0px"
   y="0px"
   id="svg12"
   sodipodi:docname="date_range.svg"
   width="32"
   height="32"
   style="fill:#000000"
   inkscape:version="0.92.0 r"
   inkscape:export-filename="/home/adrien/Code/Pic4Carto/src/img/date_range.32.png"
   inkscape:export-xdpi="96"
   inkscape:export-ydpi="96">
  <metadata
     id="metadata18">
    <rdf:RDF>
      <cc:Work
         rdf:about="">
        <dc:format>image/svg+xml</dc:format>
        <dc:type
           rdf:resource="http://purl.org/dc/dcmitype/StillImage" />
        <dc:title>Date Range</dc:title>
      </cc:Work>
    </rdf:RDF>
  </metadata>
  <defs
     id="defs16" />
  <sodipodi:namedview
     pagecolor="#ffffff"
     bordercolor="#666666"
     borderopacity="1"
     objecttolerance="10"
     gridtolerance="10"
     guidetolerance="10"
     inkscape:pageopacity="0"
     inkscape:pageshadow="2"
     inkscape:window-width="1920"
     inkscape:window-height="1023"
     id="namedview14"
     showgrid="false"
     inkscape:zoom="11.105882"
     inkscape:cx="3.7382069"
     inkscape:cy="16.368703"
     inkscape:window-x="0"
     inkscape:window-y="0"
     inkscape:window-maximized="1"
     inkscape:current-layer="svg12" />
  <title
     id="title2">Date Range</title>
  <desc
     id="desc4">Created with Sketch.</desc>
  <g
     sketch:type="MSPage"
     id="g10"
     style="fill:none;fill-rule:evenodd;stroke:none;stroke-width:1"
     transform="matrix(0.61538462,0,0,0.60377358,-11.076924,-9.6603774)">
    <g
       sketch:type="MSArtboardGroup"
       id="g8"
       style="fill:#000000">
      <path
         d="m 36.998607,49 v -3.992516 c 0,-0.558564 -0.343494,-0.721194 -0.767216,-0.368038 l -7.464175,6.221108 c -0.425448,0.354595 -0.423722,0.925736 0,1.278892 l 7.464175,6.221108 c 0.425448,0.354595 0.767216,0.18838 0.767216,-0.368038 V 54 H 51 v 3.992516 c 0,0.556418 0.341821,0.722633 0.767335,0.368038 l 7.46533,-6.221108 c 0.423787,-0.353156 0.425514,-0.924297 0,-1.278892 l -7.46533,-6.221108 C 51.343548,44.28629 51,44.44892 51,45.007484 V 49 Z M 62,21 h 4.005991 C 68.211821,21 70,22.794052 70,25.009893 V 64.990107 C 70,67.20471 68.210042,69 66.005991,69 H 21.994009 C 19.788179,69 18,67.205947 18,64.990107 V 25.009893 C 18,22.79529 19.789958,21 21.994009,21 H 26 v 4.992764 C 26,28.212833 27.795232,30 30.009763,30 h 1.980474 C 34.2122,30 36,28.205899 36,25.992764 V 21 h 16 v 4.992764 C 52,28.212833 53.795232,30 56.009763,30 h 1.980474 C 60.2122,30 62,28.205899 62,25.992764 Z M 21,37.998246 C 21,37.44693 21.455278,37 22.003555,37 h 43.99289 C 66.550693,37 67,37.455521 67,37.998246 V 65.001754 C 67,65.55307 66.544722,66 65.996445,66 H 22.003555 C 21.449307,66 21,65.544479 21,65.001754 Z M 28,18.00853 C 28,16.89925 28.898261,16 29.997913,16 h 2.004174 C 33.105504,16 34,16.90195 34,18.00853 v 7.98294 C 34,27.10075 33.101739,28 32.002087,28 H 29.997913 C 28.894496,28 28,27.09805 28,25.99147 Z m 26,0 C 54,16.89925 54.898261,16 55.997913,16 h 2.004174 C 59.105504,16 60,16.90195 60,18.00853 v 7.98294 C 60,27.10075 59.101739,28 58.002087,28 H 55.997913 C 54.894496,28 54,27.09805 54,25.99147 Z"
         sketch:type="MSShapeGroup"
         id="path6"
         inkscape:connector-curvature="0" />
    </g>
  </g>
</svg>
